—
…
head(muestra, 30)

##  [1] 21 16 17 16 22 20 12 20  9 20 18 18 13 10 13 13 17 17  8 17 23 14 17 14 16
## [26] 15 19 11 14 21

Podemos recoger en una tabla cuantas veces ha salido cada resultado:

df <- data.frame(nro_seises = muestra) %>% 
    group_by(nro_seises) %>% 
    summarise(veces = n()) %>%
    arrange(-veces)
df

## # A tibble: 26 x 2
##    nro_seises veces
##         <int> <int>
##  1         14  1139
##  2         15  1095
##  3         13  1043
##  4         16  1012
##  5         17   885
##  6         12   871
##  7         18   748
##  8         11   591
##  9         19   546
## 10         20   441
## # ... with 16 more rows
…
Vemos que el resultado más repetido es 14, que ha ocurrido 1139 veces. Como el máximo de veces que podía repetirse era 10000, esto supone una proporción de 0.1139 o un porcentaje del 11.39%. A esta proporción se le llama frecuencia del resultado 14.

Podemos recoger en una tabla las frecuencias de todos los resultados. A esta tabla se la llama la distribución de resultados del experimento.

distri_bin <- mutate(df, frecuencia = round(veces / my_n,4))
distri_bin <- select(distri_bin, nro_seises, frecuencia)
distri_bin

## # A tibble: 26 x 2
##    nro_seises frecuencia
##         <int>      <dbl>
##  1         14     0.114 
##  2         15     0.110 
##  3         13     0.104 
##  4         16     0.101 
##  5         17     0.0885
##  6         12     0.0871
##  7         18     0.0748
##  8         11     0.0591
##  9         19     0.0546
## 10         20     0.0441
## # ... with 16 more rows
…
head(muestra, 30)

##  [1] 5.19 4.94 4.66 4.69 4.97 5.47 4.87 4.76 4.85 5.14 4.90 4.69 4.97 4.99 5.39
## [16] 5.16 5.02 4.90 5.20 5.29 4.90 5.03 5.44 5.26 5.35 5.27 5.35 4.85 4.58 5.07

Podemos recoger en una tabla cuantas veces ha salido cada resultado:

df <- data.frame(medidas = muestra) %>% 
    group_by(medidas) %>% 
    summarise(veces = n()) %>%
    arrange(-veces)
df

## # A tibble: 169 x 2
##    medidas veces
##      <dbl> <int>
##  1    4.96   177
##  2    4.94   176
##  3    5.07   172
##  4    4.91   169
##  5    4.93   165
##  6    4.98   165
##  7    5.01   164
##  8    5.03   164
##  9    5.05   163
## 10    5.1    154
## # ... with 159 more rows
…
Vemos que el resultado más repetido es 4.96, que ha ocurrido 177 veces. Como el máximo de veces que podía repetirse era 10000, esto supone una proporción de 0.0177 o un porcentaje del 1.77%. A esta proporción se le llama frecuencia del resultado 4.96.

Podemos recoger en una tabla las frecuencias de todos los resultados. A esta tabla se la llama la distribución de resultados del experimento.

distri_nor <- mutate(df, frecuencia = round(veces / my_n,4))
distri_nor <- select(distri_nor, medidas, frecuencia)
distri_nor

## # A tibble: 169 x 2
##    medidas frecuencia
##      <dbl>      <dbl>
##  1    4.96     0.0177
##  2    4.94     0.0176
##  3    5.07     0.0172
##  4    4.91     0.0169
##  5    4.93     0.0165
##  6    4.98     0.0165
##  7    5.01     0.0164
##  8    5.03     0.0164
##  9    5.05     0.0163
## 10    5.1      0.0154
## # ... with 159 more rows
…
